…
Para el caso de la variación mensual del índice, la función especificó un modelo con errores aditivos, y sin estacionalidad.

Ahora vamos a hacer el forecast de cada variable para los próximos 12 períodos.

fc_ipc_vm <- fit_ipc_vm %>%
  fabletools::forecast(h = 12)

fc_ipc_long <- fit_ipc_long %>%
  fabletools::forecast(h = 12)

fc_ipc_long

## # A fable: 96 x 5 [1M]
## # Key:     variable, .model [8]
##    variable .model    fecha    variacion .mean
##    <fct>    <chr>     <mth>       <dist> <dbl>
##  1 Índice   ets    2019 Nov N(134, 0.18)  134.
##  2 Índice   ets    2019 Dec N(135, 0.51)  135.
##  3 Índice   ets    2020 Jan    N(135, 1)  135.
##  4 Índice   ets    2020 Feb  N(136, 1.8)  136.
##  5 Índice   ets    2020 Mar  N(136, 2.9)  136.
##  6 Índice   ets    2020 Apr  N(137, 4.2)  137.
##  7 Índice   ets    2020 May    N(138, 6)  138.
##  8 Índice   ets    2020 Jun  N(138, 8.2)  138.
##  9 Índice   ets    2020 Jul   N(139, 11)  139.
## 10 Índice   ets    2020 Aug   N(139, 14)  139.
## # ... with 86 more rows
…
